ID   AD   SOYAD   NUMARA   OKUL
1   Selvi   Pancar   100   Ataturk Lisesi
2   Ali Burak   Alkan   111   Borandag Lisesi
3   Yunus   Gul   112   Firat Lisesi
4   Sinem   Bas   113   KAOL
5   Asli   Kurt   114   Bilkent Lisesi
6   Bilal   Sari   115   Agri Lisesi
7   Mustafa   Gorkem   116   Kale Lisesi
